<?xml version="1.0" standalone="no"?>
<!DOCTYPE svg PUBLIC "-//W3C//DTD SVG 1.1//EN" "http://www.w3.org/Graphics/SVG/1.1/DTD/svg11.dtd" >
<svg xmlns="http://www.w3.org/2000/svg">
<metadata>
Created by FontForge 20120731 at Wed Feb 25 14:51:49 2015
 By Ads
</metadata>
<defs>
<font id="iconfont" horiz-adv-x="374" >
  <font-face 
    font-family="iconfont"
    font-weight="500"
    font-stretch="normal"
    units-per-em="1024"
    panose-1="2 0 6 3 0 0 0 0 0 0"
    ascent="812"
    descent="-212"
    x-height="792"
    bbox="34 -143.931 956 798"
    underline-thickness="50"
    underline-position="-100"
    unicode-range="U+0078-E600"
  />
<missing-glyph 
d="M34 0v682h272v-682h-272zM68 34h204v614h-204v-614z" />
    <glyph glyph-name=".notdef" 
d="M34 0v682h272v-682h-272zM68 34h204v614h-204v-614z" />
    <glyph glyph-name=".null" horiz-adv-x="0" 
 />
    <glyph glyph-name="nonmarkingreturn" horiz-adv-x="341" 
 />
    <glyph glyph-name="x" unicode="x" horiz-adv-x="1001" 
d="M281 543q-27 -1 -53 -1h-83q-18 0 -36.5 -6t-32.5 -18.5t-23 -32t-9 -45.5v-76h912v41q0 16 -0.5 30t-0.5 18q0 13 -5 29t-17 29.5t-31.5 22.5t-49.5 9h-133v-97h-438v97zM955 310v-52q0 -23 0.5 -52t0.5 -58t-10.5 -47.5t-26 -30t-33 -16t-31.5 -4.5q-14 -1 -29.5 -0.5
t-29.5 0.5h-32l-45 128h-439l-44 -128h-29h-34q-20 0 -45 1q-25 0 -41 9.5t-25.5 23t-13.5 29.5t-4 30v167h911zM163 247q-12 0 -21 -8.5t-9 -21.5t9 -21.5t21 -8.5q13 0 22 8.5t9 21.5t-9 21.5t-22 8.5zM316 123q-8 -26 -14 -48q-5 -19 -10.5 -37t-7.5 -25t-3 -15t1 -14.5
t9.5 -10.5t21.5 -4h37h67h81h80h64h36q23 0 34 12t2 38q-5 13 -9.5 30.5t-9.5 34.5q-5 19 -11 39h-368zM336 498v228q0 11 2.5 23t10 21.5t20.5 15.5t34 6h188q31 0 51.5 -14.5t20.5 -52.5v-227h-327z" />
    <glyph glyph-name="uniE600" unicode="&#xe600;" horiz-adv-x="1024" 
d="M494 81q-32 -36 -92.5 -105.5t-81.5 -92.5q-22 26 -55.5 64.5t-62 71.5t-53.5 61l2 4l2 6q1 2 2 3h74q25 -2 34.5 8t9.5 36q-2 98 -1 365q0 123 87 208t213 88q41 0 81 -11t73 -31t61 -48.5t47.5 -61.5t30 -70.5t10.5 -75.5q-1 -17 -1 -586q0 -23 -13 -39t-31 -18.5
t-39 9.5q-13 8 -13 42q-1 104 -1 568q0 54 -19 98t-59 77q-31 25 -64.5 36.5t-69 9.5t-72.5 -18q-40 -18 -67 -46.5t-40.5 -64t-15.5 -78.5q-2 -28 -1.5 -180t0.5 -181q0 -20 8.5 -28.5t28.5 -7.5q6 1 84 1q1 -4 2 -7z" />
  </font>
</defs></svg>
