<?xml version="1.0" standalone="no"?>
<!DOCTYPE svg PUBLIC "-//W3C//DTD SVG 1.1//EN" "http://www.w3.org/Graphics/SVG/1.1/DTD/svg11.dtd" >
<svg xmlns="http://www.w3.org/2000/svg">
<metadata>
Created by FontForge 20120731 at Sun Jul  5 14:51:00 2015
 By Ads
</metadata>
<defs>
<font id="iconfont" horiz-adv-x="1024" >
  <font-face 
    font-family="iconfont"
    font-weight="500"
    font-stretch="normal"
    units-per-em="1024"
    panose-1="2 0 6 3 0 0 0 0 0 0"
    ascent="812"
    descent="-212"
    x-height="792"
    bbox="-4.04762 -212 1153 812"
    underline-thickness="50"
    underline-position="-100"
    unicode-range="U+0078-E605"
  />
<missing-glyph horiz-adv-x="374" 
d="M34 0v682h272v-682h-272zM68 34h204v614h-204v-614z" />
    <glyph glyph-name=".notdef" horiz-adv-x="374" 
d="M34 0v682h272v-682h-272zM68 34h204v614h-204v-614z" />
    <glyph glyph-name=".null" horiz-adv-x="0" 
 />
    <glyph glyph-name="nonmarkingreturn" horiz-adv-x="341" 
 />
    <glyph glyph-name="x" unicode="x" horiz-adv-x="1001" 
d="M281 543q-27 -1 -53 -1h-83q-18 0 -36.5 -6t-32.5 -18.5t-23 -32t-9 -45.5v-76h912v41q0 16 -0.5 30t-0.5 18q0 13 -5 29t-17 29.5t-31.5 22.5t-49.5 9h-133v-97h-438v97zM955 310v-52q0 -23 0.5 -52t0.5 -58t-10.5 -47.5t-26 -30t-33 -16t-31.5 -4.5q-14 -1 -29.5 -0.5
t-29.5 0.5h-32l-45 128h-439l-44 -128h-29h-34q-20 0 -45 1q-25 0 -41 9.5t-25.5 23t-13.5 29.5t-4 30v167h911zM163 247q-12 0 -21 -8.5t-9 -21.5t9 -21.5t21 -8.5q13 0 22 8.5t9 21.5t-9 21.5t-22 8.5zM316 123q-8 -26 -14 -48q-5 -19 -10.5 -37t-7.5 -25t-3 -15t1 -14.5
t9.5 -10.5t21.5 -4h37h67h81h80h64h36q23 0 34 12t2 38q-5 13 -9.5 30.5t-9.5 34.5q-5 19 -11 39h-368zM336 498v228q0 11 2.5 23t10 21.5t20.5 15.5t34 6h188q31 0 51.5 -14.5t20.5 -52.5v-227h-327z" />
    <glyph glyph-name="uniE600" unicode="&#xe600;" 
d="M513 781q99 0 187 -37.5t154 -104t103.5 -154.5t37.5 -187q0 -100 -37.5 -188.5t-103.5 -154t-154 -103t-187 -37.5q-100 0 -188 37.5t-154 103t-103.5 154t-37.5 188.5q0 99 37.5 187t103.5 154.5t154 104t188 37.5zM544 -61q28 0 48 19.5t20 48.5q0 30 -20 50t-48 20
q-30 0 -50 -20t-20 -50q0 -29 20 -48.5t50 -19.5zM609 217q0 13 19 31.5t42 46t42.5 63.5t19.5 85q0 33 -12.5 69t-40.5 65.5t-71.5 49t-104.5 19.5q-72 0 -114.5 -25t-64.5 -61t-28.5 -74.5t-6.5 -64.5q0 -25 20.5 -35t44.5 -8.5t44.5 14t20.5 34.5q0 13 1.5 29.5t10 31.5
t26 24.5t48.5 9.5q48 0 76 -26.5t28 -62.5q0 -30 -20 -57.5t-43.5 -50.5t-43.5 -41t-20 -28v-75q0 -9 20 -13.5t43.5 -4t43.5 5.5t20 16v33z" />
    <glyph glyph-name="uniE601" unicode="&#xe601;" horiz-adv-x="1154" 
d="M1016 747q62 0 99.5 -31.5t37.5 -96.5v-568q0 -27 -10 -52t-28 -43t-42 -29t-51 -11h-893q-27 0 -50.5 10t-41 27t-27.5 39.5t-10 48.5v581q0 55 34 90t95 35h887zM288 558q-20 0 -37.5 -7t-30.5 -20t-21 -31t-8 -38.5t8 -38t21 -30.5t30.5 -20.5t37.5 -7.5q21 0 39 7.5
t31 20.5t20.5 30.5t7.5 38.5q0 42 -27.5 69t-70.5 27zM449 204q0 19 -8 37t-20.5 31t-30.5 20.5t-38 7.5h-128q-40 0 -67.5 -28t-27.5 -68v-4v-93h320v93v4zM924 102q20 0 30 10.5t10 25t-11.5 25t-31.5 10.5h-306q-20 0 -30.5 -10.5t-10.5 -25t10.5 -25t29.5 -10.5h310z
M925 234q20 0 29.5 10.5t9.5 24.5q0 16 -9 26t-29 10h-314q-20 0 -29.5 -10t-9.5 -26q0 -14 9 -24.5t29 -10.5h314zM926 365q15 0 26.5 10t11.5 24.5t-11.5 23t-26.5 8.5h-208q-16 0 -26.5 -8.5t-10.5 -23t10.5 -24.5t26.5 -10h208z" />
    <glyph glyph-name="uniE602" unicode="&#xe602;" 
d="M357 165q0 -20 -16.5 -32t-42.5 -23.5t-55.5 -25.5t-54.5 -39h-19q-42 0 -73 8.5t-52.5 23t-32.5 32.5t-11 36q0 22 22.5 35.5t49.5 24.5t49.5 23.5t22.5 32t-12 35.5t-27 37t-27 49.5t-12 72.5q0 31 6.5 61t19.5 52.5t33.5 35.5t48.5 13q37 0 62 -12q-7 -37 -7 -77
q0 -64 11 -109t27 -78q-15 -21 -28.5 -38.5t-13.5 -42.5q0 -13 14.5 -23t34.5 -18.5t42.5 -18t39.5 -19.5q1 -5 1 -16zM865 260q0 -11 12 -20.5t29.5 -17.5t38.5 -15.5t38 -16.5t29 -19.5t12 -25.5q0 -22 -15.5 -39.5t-41 -29.5t-58.5 -18t-68 -7q-29 20 -62 30.5t-62 19.5
t-50 19.5t-25 31.5q4 19 26.5 31.5t48.5 23t47 23t21 30.5q0 22 -16 39.5t-34 41.5q17 36 27.5 85t10.5 116q0 14 -1.5 28.5t-3.5 28.5q27 18 48 18q48 0 77 -15.5t43.5 -39t19.5 -51t5 -49.5q0 -46 -15 -74.5t-33 -49t-33 -37.5t-15 -41zM578 152q0 -22 18.5 -38.5
t47.5 -31t62.5 -28t62.5 -29.5t48 -35t19 -44q0 -18 -29 -33.5t-76 -29t-108.5 -21t-125.5 -7.5q-74 0 -131 7.5t-95.5 20.5t-58 29t-19.5 33q0 25 18.5 44t47.5 34.5t62 28t62 27t48 31.5t19 40.5t-10 44t-25 41.5t-32 45.5t-32 55.5t-25 70.5t-10 92.5q0 113 42.5 180
t131.5 67q75 0 118 -22.5t65 -57.5t28 -77.5t6 -83.5q0 -55 -10 -95t-24.5 -70t-30.5 -53t-30.5 -44t-24 -43t-9.5 -49z" />
    <glyph glyph-name="uniE603" unicode="&#xe603;" horiz-adv-x="1029" 
d="M1001 317q22 -20 23 -44.5t-16 -41.5q-20 -17 -45.5 -16t-40.5 14q-6 4 -32 29t-62 59t-77.5 73.5t-78.5 74.5t-63.5 60.5t-34.5 31.5q-32 30 -64 29t-63 -29q-10 -9 -38 -35t-65 -61t-78 -73t-75.5 -70.5t-60 -55.5t-30.5 -28q-15 -12 -40.5 -13t-44.5 16q-20 18 -19 44
t17 42q6 6 38 35.5t76 70.5t94.5 88t94 88t75 70t36.5 35q39 37 84 38t77 -30q6 -5 25.5 -24t47.5 -46t63 -61t70.5 -68.5t70 -68t63 -61t48.5 -46.5zM447 466q26 23 62 25t64 -25q3 -3 19 -18l39 -35q22 -22 50.5 -48.5t57.5 -53.5q69 -63 154 -142v-195q0 -22 -17 -39.5
t-46 -18.5h-193v159q0 34 -32 34h-195q-18 0 -24.5 -10.5t-6.5 -23.5q0 -6 -0.5 -31.5t-0.5 -53.5v-74h-188q-29 0 -46.5 13.5t-17.5 37.5v204q84 77 152 139q29 27 57.5 53t52.5 47.5t39.5 36.5t19.5 19z" />
    <glyph glyph-name="uniE604" unicode="&#xe604;" 
d="M573 632h-302v120h61q0 25 17.5 42.5t42.5 17.5h60q25 0 42.5 -17.5t17.5 -42.5h61v-120zM422 686q16 0 27 11t11 26q0 17 -11 27.5t-27 10.5t-26.5 -10.5t-10.5 -27.5q0 -15 10.5 -26t26.5 -11zM664 212q44 0 82.5 -17t67 -46t45.5 -67.5t17 -81.5q0 -44 -17 -82.5
t-45.5 -67.5t-67 -45.5t-82.5 -16.5t-82.5 16.5t-67.5 45.5t-46 67.5t-17 82.5q0 43 17 81.5t46 67.5t67.5 46t82.5 17zM795 18q6 7 11 16.5t-3 17.5q-2 2 -9 9.5t-9 8.5q-10 7 -18.5 2t-17.5 -13q-22 -22 -44 -43.5t-41 -40.5q-7 -7 -15 -8.5t-13 5.5q-3 3 -9 9.5t-13 14.5
t-13 15t-9 10q-6 5 -13 6.5t-15 -5.5q-1 -1 -5 -4.5t-7.5 -7.5t-7.5 -7.5t-5 -4.5q-14 -15 4 -36q6 -6 15.5 -16.5t20 -22t21 -22.5t18.5 -18t21.5 -6.5t19.5 7.5q14 13 31 30l36 36l37 37q18 18 32 31zM389 29q0 -7 -0.5 -13.5t-0.5 -14.5q0 -43 12.5 -82t35.5 -72h-281
q-19 0 -40.5 10.5t-40.5 28t-31.5 39.5t-12.5 46v596q0 21 10 42.5t25 40t35.5 30.5t42.5 12h68v-121h421v121h60q22 0 44 -10t39 -26t28 -39.5t11 -49.5v-341q-33 22 -71.5 35t-82.5 13h-6q17 6 28 21.5t11 34.5q0 25 -18 42.5t-43 17.5h-421q-25 0 -42.5 -17.5
t-17.5 -42.5t17.5 -42.5t42.5 -17.5h404q-58 -10 -105 -41.5t-78 -79.5h-221q-25 0 -42.5 -17t-17.5 -42.5t17.5 -43t42.5 -17.5h178z" />
    <glyph glyph-name="uniE605" unicode="&#xe605;" 
d="M511.5 551q52.5 0 99 -19.5t81 -54t54 -81t19.5 -99t-19.5 -99.5t-54 -81.5t-81 -54t-99 -19.5t-99 19.5t-81 54t-54 81.5t-19.5 99.5t19.5 99t54 81t81 54t99 19.5zM1019 361v-127h-61q-10 -76 -43 -142t-84.5 -117t-117 -84.5t-140.5 -43.5v-59h-126v59
q-76 11 -140.5 45t-115 85t-83.5 116t-42 141h-65v127h66q11 73 44.5 136.5t84 113.5t114 82.5t137.5 43.5v70h126v-69q74 -10 138.5 -43t115.5 -83t84.5 -114t44.5 -137h63zM511.5 -21q65.5 0 124 25t101.5 68.5t68.5 102t25.5 124t-25.5 124t-68.5 101.5t-101.5 68.5
t-124 25.5t-124 -25.5t-102 -68.5t-68.5 -101.5t-25 -124t25 -124t68.5 -102t102 -68.5t124 -25z" />
  </font>
</defs></svg>
